Chr	Marker	bp	v1	v2	v3	v4	v5	v6	n
1	1a	1	80.000000	6.000000	17.860036	-1.298994	2.518496	8.375000	240
1	2b	2	80.000000	16.500000	17.860036	-1.298994	-1.600911	24.000000	240
1	3c	3	80.000000	28.000000	17.860036	-1.298994	0.823819	38.625000	240
2	4d	4	80.000000	13.000000	17.860036	-1.298994	2.949601	19.250000	240
2	5e	5	80.000000	15.000000	17.860036	-1.298994	-0.759054	20.875000	240
